^C:\USERS\משתמש\DOCUMENTS\FINAL PROJECT - C\MAGSHIMIM_EX1\MAGSHIMIM_EX1\PROG.C
C:\PROGRAM FILES (X86)\WINDOWS KITS\10\INCLUDE\10.0.18362.0\UCRT\STDIO.H
C:\PROGRAM FILES (X86)\WINDOWS KITS\10\INCLUDE\10.0.18362.0\UCRT\CORECRT.H
C:\PROGRAM FILES (X86)\MICROSOFT VISUAL STUDIO\2019\COMMUNITY\VC\TOOLS\MSVC\14.23.28105\INCLUDE\VCRUNTIME.H
C:\PROGRAM FILES (X86)\MICROSOFT VISUAL STUDIO\2019\COMMUNITY\VC\TOOLS\MSVC\14.23.28105\INCLUDE\SAL.H
C:\PROGRAM FILES (X86)\MICROSOFT VISUAL STUDIO\2019\COMMUNITY\VC\TOOLS\MSVC\14.23.28105\INCLUDE\CONCURRENCYSAL.H
C:\PROGRAM FILES (X86)\MICROSOFT VISUAL STUDIO\2019\COMMUNITY\VC\TOOLS\MSVC\14.23.28105\INCLUDE\VADEFS.H
C:\PROGRAM FILES (X86)\WINDOWS KITS\10\INCLUDE\10.0.18362.0\UCRT\CORECRT_WSTDIO.H
C:\PROGRAM FILES (X86)\WINDOWS KITS\10\INCLUDE\10.0.18362.0\UCRT\CORECRT_STDIO_CONFIG.H
C:\PROGRAM FILES (X86)\WINDOWS KITS\10\INCLUDE\10.0.18362.0\UCRT\STDLIB.H
C:\PROGRAM FILES (X86)\WINDOWS KITS\10\INCLUDE\10.0.18362.0\UCRT\CORECRT_MALLOC.H
C:\PROGRAM FILES (X86)\WINDOWS KITS\10\INCLUDE\10.0.18362.0\UCRT\CORECRT_SEARCH.H
C:\PROGRAM FILES (X86)\WINDOWS KITS\10\INCLUDE\10.0.18362.0\UCRT\STDDEF.H
C:\PROGRAM FILES (X86)\WINDOWS KITS\10\INCLUDE\10.0.18362.0\UCRT\CORECRT_WSTDLIB.H
C:\PROGRAM FILES (X86)\MICROSOFT VISUAL STUDIO\2019\COMMUNITY\VC\TOOLS\MSVC\14.23.28105\INCLUDE\LIMITS.H
C:\OPENCV\BUILD\INCLUDE\OPENCV2\HIGHGUI\HIGHGUI_C.H
C:\OPENCV\BUILD\INCLUDE\OPENCV2\CORE\CORE_C.H
C:\OPENCV\BUILD\INCLUDE\OPENCV2\CORE\TYPES_C.H
C:\OPENCV\BUILD\INCLUDE\OPENCV2\CORE\CVDEF.H
C:\OPENCV\BUILD\INCLUDE\OPENCV2\HAL\DEFS.H
C:\PROGRAM FILES (X86)\MICROSOFT VISUAL STUDIO\2019\COMMUNITY\VC\TOOLS\MSVC\14.23.28105\INCLUDE\EMMINTRIN.H
C:\PROGRAM FILES (X86)\MICROSOFT VISUAL STUDIO\2019\COMMUNITY\VC\TOOLS\MSVC\14.23.28105\INCLUDE\XMMINTRIN.H
C:\PROGRAM FILES (X86)\MICROSOFT VISUAL STUDIO\2019\COMMUNITY\VC\TOOLS\MSVC\14.23.28105\INCLUDE\MMINTRIN.H
C:\PROGRAM FILES (X86)\WINDOWS KITS\10\INCLUDE\10.0.18362.0\UCRT\MALLOC.H
C:\PROGRAM FILES (X86)\MICROSOFT VISUAL STUDIO\2019\COMMUNITY\VC\TOOLS\MSVC\14.23.28105\INCLUDE\PMMINTRIN.H
C:\PROGRAM FILES (X86)\MICROSOFT VISUAL STUDIO\2019\COMMUNITY\VC\TOOLS\MSVC\14.23.28105\INCLUDE\TMMINTRIN.H
C:\PROGRAM FILES (X86)\MICROSOFT VISUAL STUDIO\2019\COMMUNITY\VC\TOOLS\MSVC\14.23.28105\INCLUDE\SMMINTRIN.H
C:\PROGRAM FILES (X86)\MICROSOFT VISUAL STUDIO\2019\COMMUNITY\VC\TOOLS\MSVC\14.23.28105\INCLUDE\NMMINTRIN.H
C:\PROGRAM FILES (X86)\WINDOWS KITS\10\INCLUDE\10.0.18362.0\UCRT\MATH.H
C:\PROGRAM FILES (X86)\WINDOWS KITS\10\INCLUDE\10.0.18362.0\UCRT\CORECRT_MATH.H
C:\PROGRAM FILES (X86)\MICROSOFT VISUAL STUDIO\2019\COMMUNITY\VC\TOOLS\MSVC\14.23.28105\INCLUDE\INTRIN.H
C:\PROGRAM FILES (X86)\MICROSOFT VISUAL STUDIO\2019\COMMUNITY\VC\TOOLS\MSVC\14.23.28105\INCLUDE\INTRIN0.H
C:\PROGRAM FILES (X86)\MICROSOFT VISUAL STUDIO\2019\COMMUNITY\VC\TOOLS\MSVC\14.23.28105\INCLUDE\SETJMP.H
C:\PROGRAM FILES (X86)\MICROSOFT VISUAL STUDIO\2019\COMMUNITY\VC\TOOLS\MSVC\14.23.28105\INCLUDE\IMMINTRIN.H
C:\PROGRAM FILES (X86)\MICROSOFT VISUAL STUDIO\2019\COMMUNITY\VC\TOOLS\MSVC\14.23.28105\INCLUDE\WMMINTRIN.H
C:\PROGRAM FILES (X86)\MICROSOFT VISUAL STUDIO\2019\COMMUNITY\VC\TOOLS\MSVC\14.23.28105\INCLUDE\ZMMINTRIN.H
C:\PROGRAM FILES (X86)\MICROSOFT VISUAL STUDIO\2019\COMMUNITY\VC\TOOLS\MSVC\14.23.28105\INCLUDE\AMMINTRIN.H
C:\PROGRAM FILES (X86)\MICROSOFT VISUAL STUDIO\2019\COMMUNITY\VC\TOOLS\MSVC\14.23.28105\INCLUDE\MM3DNOW.H
C:\PROGRAM FILES (X86)\WINDOWS KITS\10\INCLUDE\10.0.18362.0\UCRT\ASSERT.H
C:\PROGRAM FILES (X86)\WINDOWS KITS\10\INCLUDE\10.0.18362.0\UCRT\STRING.H
C:\PROGRAM FILES (X86)\WINDOWS KITS\10\INCLUDE\10.0.18362.0\UCRT\CORECRT_MEMORY.H
C:\PROGRAM FILES (X86)\WINDOWS KITS\10\INCLUDE\10.0.18362.0\UCRT\CORECRT_MEMCPY_S.H
C:\PROGRAM FILES (X86)\WINDOWS KITS\10\INCLUDE\10.0.18362.0\UCRT\ERRNO.H
C:\PROGRAM FILES (X86)\MICROSOFT VISUAL STUDIO\2019\COMMUNITY\VC\TOOLS\MSVC\14.23.28105\INCLUDE\VCRUNTIME_STRING.H
C:\PROGRAM FILES (X86)\WINDOWS KITS\10\INCLUDE\10.0.18362.0\UCRT\CORECRT_WSTRING.H
C:\PROGRAM FILES (X86)\WINDOWS KITS\10\INCLUDE\10.0.18362.0\UCRT\FLOAT.H
C:\OPENCV\BUILD\INCLUDE\OPENCV2\IMGPROC\IMGPROC_C.H
C:\OPENCV\BUILD\INCLUDE\OPENCV2\IMGPROC\TYPES_C.H
C:\OPENCV\BUILD\INCLUDE\OPENCV2\IMGCODECS\IMGCODECS_C.H
C:\OPENCV\BUILD\INCLUDE\OPENCV2\VIDEOIO\VIDEOIO_C.H
C:\USERS\משתמש\DOCUMENTS\FINAL PROJECT - C\MAGSHIMIM_EX1\MAGSHIMIM_EX1\VIEW.H
C:\USERS\משתמש\DOCUMENTS\FINAL PROJECT - C\MAGSHIMIM_EX1\MAGSHIMIM_EX1\LINKEDLIST.H
