^C:\Users\משתמש\Documents\Final project - C\Magshimim_EX1\Magshimim_EX1\Magshimim_EX1.vcxproj
C:\Users\משתמש\Documents\Final project - C\Magshimim_EX1\Release\Magshimim_EX1.ipdb
C:\Users\משתמש\Documents\Final project - C\Magshimim_EX1\Release\Magshimim_EX1.iobj
